Differential Abundance Analysis of Label-Free Mass Spectrometry Data • proDA
…
Fitting the Probabilistic Dropout Model

In the next step we will fit the actual linear probabilistic dropoout model to the normalized data. But before we start I will create a data.frame that contains some additional info on each sample, in particular to which condition that sample belongs.

sample_info_df <- data.frame(name = colnames(normalized_abundance_matrix),
                             stringsAsFactors = FALSE)
sample_info_df$condition <- substr(sample_info_df$name, 1, nchar(sample_info_df$name)  - 3)
sample_info_df$replicate <- as.numeric(
  substr(sample_info_df$name, nchar(sample_info_df$name)  - 1, 20)
)
sample_info_df
#> # A tibble: 36 x 3
#>    name       condition replicate
#>    <chr>      <chr>         <dbl>
#>  1 CG1407.01  CG1407            1
#>  2 CG1407.02  CG1407            2
#>  3 CG1407.03  CG1407            3
#>  4 CG4676.01  CG4676            1
#>  5 CG4676.02  CG4676            2
#>  6 CG4676.03  CG4676            3
#>  7 CG51963.01 CG51963           1
#>  8 CG51963.02 CG51963           2
#>  9 CG51963.03 CG51963           3
#> 10 CG5620A.01 CG5620A           1
#> # … with 26 more rows
…
The proDAFit object prints a number of useful information about the convergence of the model, the size of the dataset, the number of missing values, and the inferred hyper parameters.

To make it easy to find available methods on the proDAFit object, the $-operator is overloaded and shows a list of possible functions:

# Equivalent to feature_parameters(fit)
fit$feature_parameters
#> # A tibble: 122 x 4
#>    n_approx     df      s2 n_obs
#>       <dbl>  <dbl>   <dbl> <dbl>
#>  1     12.0  0.001 419.        5
#>  2     12.0  0.001 453.        1
#>  3     17.0  6.13    6.13     14
#>  4     12.0  0.001  94.4       6
#>  5     16.8  5.97    0.552    17
#>  6     12.0  0.001 472.        1
#>  7     12.0  0.001 373.        1
#>  8     29.0 18.1     0.223    29
#>  9     12.0  0.001 213.        4
#> 10     12.0  0.001 547.        4
#> # … with 112 more rows
…
Differential Abundance

Finally we can identify

test_res <- test_diff(fit, "conditionCG1407")
test_res
#> # A tibble: 122 x 10
#>    name                pval adj_pval     diff t_statistic     se     df avg_abundance n_approx n_obs
#>    <chr>              <dbl>    <dbl>    <dbl>       <dbl>  <dbl>  <dbl>         <dbl>    <dbl> <dbl>
#>  1 Q8IP47;Q9VJP8;Q9… 0.998    1.000   1.93        0.116   16.7    0.001          16.8     12.0     5
#>  2 A0A023GPV6;A8JV0… 0.998    1.000   2.01        0.115   17.4    0.001          15.9     12.0     1
#>  3 A0A023GQA5;P24156 0.0118   0.0962 -7.15       -3.54     2.02   6.13           18.3     17.0    14
#>  4 Q1RKY1;A0A0B4LG1… 0.996    1.000   5.03        0.634    7.93   0.001          16.8     12.0     6
#>  5 A0A0B4JD00;A8DY6… 0.997    1.000  -0.00243    -0.00400  0.607  5.97           19.8     16.8    17
#>  6 A0A0B4JCT8;Q9V780 0.998    1.000   2.01        0.113   17.7    0.001          15.9     12.0     1
#>  7 A0A0B4LHQ4;A0A0B… 0.998    1.000   2.03        0.128   15.8    0.001          15.9     12.0     1
#>  8 A0A0B4JCW4;Q9VHJ… 0.577    1.000  -0.219      -0.568    0.386 18.1            21.9     29.0    29
#>  9 Q9VDV4;A0A0B4JCY… 0.996    1.000   6.42        0.539   11.9    0.001          16.4     12.0     4
#> 10 A0A0B4JCY6;Q7KSF… 0.999    1.000  -0.946      -0.0495  19.1    0.001          17.0     12.0     4
#> # … with 112 more rows
…
