Proteomics Data Import • proDA
…
I first load the full data file

# The read_tsv function works faster and more reliable than read.delim
# But it sometimes needs help to identify the right type for each column,
# because it looks only at the first 1,000 elements. 
# I do that here for the Reverse column.
full_data <- read_tsv(
    system.file("extdata/proteinGroups.txt", 
                package = "proDD", mustWork = TRUE),
    col_types = cols(Reverse = col_character())
)

full_data
#> # A tibble: 122 x 359
#>    Protein.IDs Majority.protei… Peptide.counts.… Peptide.counts.…
#>    <chr>       <chr>            <chr>            <chr>           
#>  1 Q8IP47;Q9V… Q8IP47;Q9VJP8;Q… 7;7;7;7;3;1      7;7;7;7;3;1     
#>  2 A0A023GPV6… A0A023GPV6;A8JV… 2;2;2            2;2;2           
#>  3 A0A023GQA5… A0A023GQA5;P241… 13;13            13;13           
#>  4 Q1RKY1;A0A… Q1RKY1;A0A0B4LG… 3;3;3;3;3;3;3;3… 3;3;3;3;3;3;3;3…
#>  5 A0A0B4JD00… A0A0B4JD00;A8DY… 6;6;6;6;6;5;5;5… 6;6;6;6;6;5;5;5…
#>  6 A0A0B4JCT8… A0A0B4JCT8;Q9V7… 2;2              2;2             
#>  7 A0A0B4LHQ4… A0A0B4LHQ4;A0A0… 3;3;3;3;3;3;3;3… 3;3;3;3;3;3;3;3…
#>  8 A0A0B4JCW4… A0A0B4JCW4;Q9VH… 10;10;10         10;10;10        
#>  9 Q9VDV4;A0A… Q9VDV4;A0A0B4JC… 4;4;3;3          4;4;3;3         
#> 10 A0A0B4JCY6… A0A0B4JCY6;Q7KS… 6;6;6;6;6;3;3;3… 6;6;6;6;6;3;3;3…
#> # … with 112 more rows, and 355 more variables:
#> #   Peptide.counts..unique. <chr>, Protein.names <chr>, Gene.names <chr>,
#> #   Fasta.headers <chr>, Number.of.proteins <dbl>, Peptides <dbl>,
#> #   Razor...unique.peptides <dbl>, Unique.peptides <dbl>,
#> #   Peptides.CG1407.01 <dbl>, Peptides.CG1407.02 <dbl>,
#> #   Peptides.CG1407.03 <dbl>, Peptides.CG4676.01 <dbl>,
#> #   Peptides.CG4676.02 <dbl>, Peptides.CG4676.03 <dbl>,
#> #   Peptides.CG51963.01 <dbl>, Peptides.CG51963.02 <dbl>,
#> #   Peptides.CG51963.03 <dbl>, Peptides.CG5620A.01 <dbl>,
…
Next, I create a tidy version of the data set. I pipe (%>%) the results from each transformation to the next transformation, to first select the columns of interest, reshape (gather) the dataset from wide to long format, and lastly create new columns with mutate.

tidy_data <- full_data %>%
    dplyr::select(ProteinID=Protein.IDs, starts_with("LFQ.intensity.")) %>%
    gather(Sample, Intensity, starts_with("LFQ.intensity.")) %>%
    mutate(Condition = str_match(Sample, 
                 "LFQ\\.intensity\\.([[:alnum:]]+)\\.\\d+")[,2]) %>%
    mutate(Replicate = as.numeric(str_match(Sample, 
                 "LFQ\\.intensity\\.[[:alnum:]]+\\.(\\d+)")[,2])) %>%
    mutate(SampleName = paste0(Condition, ".", Replicate))

tidy_data
#> # A tibble: 4,392 x 6
#>    ProteinID             Sample    Intensity Condition Replicate SampleName
#>    <chr>                 <chr>         <dbl> <chr>         <dbl> <chr>     
#>  1 Q8IP47;Q9VJP8;Q9V435… LFQ.inte…         0 CG1407            1 CG1407.1  
#>  2 A0A023GPV6;A8JV04;Q7… LFQ.inte…         0 CG1407            1 CG1407.1  
#>  3 A0A023GQA5;P24156     LFQ.inte…         0 CG1407            1 CG1407.1  
#>  4 Q1RKY1;A0A0B4LG19;A0… LFQ.inte…         0 CG1407            1 CG1407.1  
#>  5 A0A0B4JD00;A8DY69;I0… LFQ.inte…   2082100 CG1407            1 CG1407.1  
#>  6 A0A0B4JCT8;Q9V780     LFQ.inte…         0 CG1407            1 CG1407.1  
#>  7 A0A0B4LHQ4;A0A0B4JD6… LFQ.inte…         0 CG1407            1 CG1407.1  
#>  8 A0A0B4JCW4;Q9VHJ8;Q9… LFQ.inte…   2858600 CG1407            1 CG1407.1  
#>  9 Q9VDV4;A0A0B4JCY1;Q8… LFQ.inte…   1291400 CG1407            1 CG1407.1  
#> 10 A0A0B4JCY6;Q7KSF4;A0… LFQ.inte…         0 CG1407            1 CG1407.1  
#> # … with 4,382 more rows
…
