Introduction • proDA
…
Fit the Probabilistic Dropout Model

In the next step, we will fit the actual linear probabilistic dropoout model to the normalized data. But before we start, I will create a data.frame that contains some additional information on each sample, in particular to which condition that sample belongs.

# The best way to create this data.frame depends on the column naming scheme
sample_info_df <- data.frame(name = colnames(normalized_abundance_matrix),
                             stringsAsFactors = FALSE)
sample_info_df$condition <- substr(sample_info_df$name, 1, nchar(sample_info_df$name)  - 3)
sample_info_df$replicate <- as.numeric(
  substr(sample_info_df$name, nchar(sample_info_df$name)  - 1, 20)
)
sample_info_df
#> # A tibble: 36 x 3
#>    name       condition replicate
#>    <chr>      <chr>         <dbl>
#>  1 CG1407.01  CG1407            1
#>  2 CG1407.02  CG1407            2
#>  3 CG1407.03  CG1407            3
#>  4 CG4676.01  CG4676            1
#>  5 CG4676.02  CG4676            2
#>  6 CG4676.03  CG4676            3
#>  7 CG51963.01 CG51963           1
#>  8 CG51963.02 CG51963           2
#>  9 CG51963.03 CG51963           3
#> 10 CG5620A.01 CG5620A           1
#> # … with 26 more rows
…
# Equivalent to feature_parameters(fit)
fit$feature_parameters
#> # A tibble: 122 x 4
#>    n_approx     df       s2 n_obs
#>       <dbl>  <dbl>    <dbl> <dbl>
#>  1     12.0  0.001 3808.        5
#>  2     12.0  0.001 2439.        1
#>  3     19.3  8.93     4.07     14
#>  4     12.0  0.001  850.        6
#>  5     17.4  7.04     0.470    17
#>  6     12.0  0.001 2472.        1
#>  7     12.0  0.001 2410.        1
#>  8     28.9 18.6      0.217    29
#>  9     12.0  0.001 1797.        4
#> 10     12.0  0.001 1881.        4
#> # … with 112 more rows
…
Identify Differential Abundance

Lastly, we will use a Wald test to identify in which proteins a coefficient is significantly different from zero. The test_diff() function takes first the fit object produced by proDA() and a contrast argument. This can either be a string or an expression if we want to test more complex combinations. For example conditionCG1407 - (conditionCG6017 + conditionCG5880) / 2 would test for the difference between CG1407 and the average of CG6017 and CG5880.

Alternatively test_diff() also supports likelihood ratio F-tests. In that case instead of the contrast argument specify the reduced_model argument.

# Test which proteins differ between condition CG1407 and S2R
# S2R is the default contrast, because it was specified as the `reference_level`
test_res <- test_diff(fit, "conditionCG1407")
test_res
#> # A tibble: 122 x 10
#>    name                   pval adj_pval    diff t_statistic    se    df avg_abundance n_approx n_obs
#>    <chr>                 <dbl>    <dbl>   <dbl>       <dbl> <dbl> <dbl>         <dbl>    <dbl> <dbl>
#>  1 Q8IP47;Q9VJP8;Q9V43… 0.904     0.964 -0.132      -0.122  1.08     24          18.9     12.0     5
#>  2 A0A023GPV6;A8JV04;Q… 0.923     0.964 -0.0993     -0.0979 1.01     24          18.4     12.0     1
#>  3 A0A023GQA5;P24156    0.0356    0.265 -2.92       -2.23   1.31     24          19.3     19.3    14
#>  4 Q1RKY1;A0A0B4LG19;A… 0.667     0.964  0.632       0.435  1.45     24          18.7     12.0     6
#>  5 A0A0B4JD00;A8DY69;I… 0.919     0.964  0.0689      0.103  0.670    24          20.0     17.4    17
#>  6 A0A0B4JCT8;Q9V780    0.923     0.964 -0.0995     -0.0981 1.01     24          18.5     12.0     1
#>  7 A0A0B4LHQ4;A0A0B4JD… 0.923     0.964 -0.0991     -0.0977 1.01     24          18.4     12.0     1
#>  8 A0A0B4JCW4;Q9VHJ8;Q… 0.643     0.964 -0.197      -0.469  0.419    24          21.9     28.9    29
#>  9 Q9VDV4;A0A0B4JCY1;Q… 0.295     0.861  1.95        1.07   1.82     24          18.7     12.0     4
#> 10 A0A0B4JCY6;Q7KSF4;A… 0.598     0.964 -0.783      -0.535  1.46     24          19.0     12.0     4
#> # … with 112 more rows
…
